[debug] > Exec(fastOptJS::webpack, None, None)
[debug] Evaluating tasks: sharedJS / Compile / fastOptJS / webpack
[debug] Running task... Cancel: Signal, check cycles: false, forcegc: true
[info] compiling 1 Scala source to C:\WebApplication\js\target\scala-2.12\classes ...
[info] Updating NPM dependencies
[info] Using lockfile C:\WebApplication\js\yarn.lock
[info] yarn install v1.22.5
[info] [1/4] Resolving packages...
[error] C:\WebApplication\js\src\main\scala\sample\SttpClientApi.scala:80:15: wrong number of type arguments for outwatch.router.AppRouter, should be 2
[error]   def router: AppRouter[Page] = AppRouter.create[Page](EmptyPage){
[error]               ^
[error] C:\WebApplication\js\src\main\scala\sample\SttpClientApi.scala:80:43: wrong number of type parameters for overloaded method value create with alternatives:
[error]   [F[_], P](parent: outwatch.router.Path, notFound: P)(f: PartialFunction[outwatch.router.Path,P])(implicit evidence$3: cats.effect.Sync[F])outwatch.router.AppRouter[F,P] <and>
[error]   [F[_], P](notFound: P)(f: PartialFunction[outwatch.router.Path,P])(implicit evidence$2: cats.effect.Sync[F])outwatch.router.AppRouter[F,P]
[error]   def router: AppRouter[Page] = AppRouter.create[Page](EmptyPage){
[error]                                           ^
[error] two errors found
[info] [2/4] Fetching packages...
[info] info fsevents@2.3.2: The platform "win32" is incompatible with this module.
[info] info "fsevents@2.3.2" is an optional dependency and failed compatibility check. Excluding it from installation.
[info] info fsevents@1.2.13: The platform "win32" is incompatible with this module.
[info] info "fsevents@1.2.13" is an optional dependency and failed compatibility check. Excluding it from installation.
[info] [3/4] Linking dependencies...
[error] warning " > bootstrap@4.3.1" has unmet peer dependency "popper.js@^1.14.7".
[info] [4/4] Building fresh packages...
[info] success Saved lockfile.
[info] Done in 6.41s.
[debug] Global IR cache stats: reused: 0 -- invalidated: 0 -- trees read: 0
[error] (sharedJS / Compile / compileIncremental) Compilation failed
[error] Total time: 10 s, completed 1 мая 2021 г., 16:35:39
[debug] > Exec(idea-shell, None, None)
