[debug] > Exec(fastOptJS, None, None)
[debug] Evaluating tasks: sharedJS / Compile / fastOptJS
[debug] Running task... Cancel: Signal, check cycles: false, forcegc: true
[info] compiling 1 Scala source to C:\WebApplication\js\target\scala-2.12\classes ...
[info] done compiling
[info] Fast optimizing C:\WebApplication\js\target\scala-2.12\shared-fastopt
[debug] Global IR cache stats: reused: 0 -- invalidated: 129 -- trees read: 0
[error] java.io.IOException: Failed to deserialize C:\WebApplication\null\Coursier\cache\v1\https\jitpack.io\com\github\clovellytech\outwatch-router\v0.0.7\outwatch-router-v0.0.7.jar:/outwatch/router/Action.sjsir
[error] 	at org.scalajs.linker.interface.unstable.IRFileImpl$$anonfun$withPathExceptionContext$1.applyOrElse(IRFileImpl.scala:65)
[error] 	at org.scalajs.linker.interface.unstable.IRFileImpl$$anonfun$withPathExceptionContext$1.applyOrElse(IRFileImpl.scala:58)
[error] 	at scala.runtime.AbstractPartialFunction.apply(AbstractPartialFunction.scala:38)
[error] 	at scala.util.Failure.recover(Try.scala:234)
[error] 	at scala.concurrent.Future.$anonfun$recover$1(Future.scala:395)
[error] 	at scala.concurrent.impl.Promise.liftedTree1$1(Promise.scala:33)
[error] 	at scala.concurrent.impl.Promise.$anonfun$transform$1(Promise.scala:33)
[error] 	at scala.concurrent.impl.CallbackRunnable.run(Promise.scala:64)
[error] 	at java.base/java.util.concurrent.ForkJoinTask$RunnableExecuteAction.exec(ForkJoinTask.java:1425)
[error] 	at java.base/java.util.concurrent.ForkJoinTask.doExec(ForkJoinTask.java:290)
[error] 	at java.base/java.util.concurrent.ForkJoinPool$WorkQueue.topLevelExec(ForkJoinPool.java:1016)
[error] 	at java.base/java.util.concurrent.ForkJoinPool.scan(ForkJoinPool.java:1665)
[error] 	at java.base/java.util.concurrent.ForkJoinPool.runWorker(ForkJoinPool.java:1598)
[error] 	at java.base/java.util.concurrent.ForkJoinWorkerThread.run(ForkJoinWorkerThread.java:177)
[error] Caused by: java.lang.IllegalArgumentException: malformed version: 0.6.17
[error] 	at org.scalajs.ir.VersionChecks$.$anonfun$mustMatch$1(ScalaJSVersions.scala:99)
[error] 	at scala.Option.getOrElse(Option.scala:189)
[error] 	at org.scalajs.ir.VersionChecks$.mustMatch(ScalaJSVersions.scala:99)
[error] 	at org.scalajs.ir.VersionChecks$.org$scalajs$ir$VersionChecks$$parseBinary(ScalaJSVersions.scala:88)
[error] 	at org.scalajs.ir.VersionChecks.checkSupported(ScalaJSVersions.scala:63)
[error] 	at org.scalajs.ir.Serializers$Deserializer.readHeader(Serializers.scala:1007)
[error] 	at org.scalajs.ir.Serializers$Deserializer.deserializeEntryPointsInfo(Serializers.scala:966)
[error] 	at org.scalajs.ir.Serializers$.$anonfun$deserializeEntryPointsInfo$1(Serializers.scala:52)
[error] 	at org.scalajs.ir.Serializers$.withBigEndian(Serializers.scala:67)
[error] 	at org.scalajs.ir.Serializers$.deserializeEntryPointsInfo(Serializers.scala:52)
[error] 	at org.scalajs.linker.standard.MemIRFileImpl.$anonfun$entryPointsInfo$1(MemIRFile.scala:31)
[error] 	at org.scalajs.linker.standard.MemIRFileImpl.$anonfun$withBuffer$1(MemIRFile.scala:39)
[error] 	at scala.concurrent.Future$.$anonfun$apply$1(Future.scala:659)
[error] 	at scala.util.Success.$anonfun$map$1(Try.scala:255)
[error] 	at scala.util.Success.map(Try.scala:213)
[error] 	at scala.concurrent.Future.$anonfun$map$1(Future.scala:292)
[error] 	at scala.concurrent.impl.Promise.liftedTree1$1(Promise.scala:33)
[error] 	at scala.concurrent.impl.Promise.$anonfun$transform$1(Promise.scala:33)
[error] 	at scala.concurrent.impl.CallbackRunnable.run(Promise.scala:64)
[error] 	at java.base/java.util.concurrent.ForkJoinTask$RunnableExecuteAction.exec(ForkJoinTask.java:1425)
[error] 	at java.base/java.util.concurrent.ForkJoinTask.doExec(ForkJoinTask.java:290)
[error] 	at java.base/java.util.concurrent.ForkJoinPool$WorkQueue.topLevelExec(ForkJoinPool.java:1016)
[error] 	at java.base/java.util.concurrent.ForkJoinPool.scan(ForkJoinPool.java:1665)
[error] 	at java.base/java.util.concurrent.ForkJoinPool.runWorker(ForkJoinPool.java:1598)
[error] 	at java.base/java.util.concurrent.ForkJoinWorkerThread.run(ForkJoinWorkerThread.java:177)
[error] (sharedJS / Compile / fastLinkJS) java.io.IOException: Failed to deserialize C:\WebApplication\null\Coursier\cache\v1\https\jitpack.io\com\github\clovellytech\outwatch-router\v0.0.7\outwatch-router-v0.0.7.jar:/outwatch/router/Action.sjsir
[error] Total time: 6 s, completed 1 мая 2021 г., 16:33:21
[debug] > Exec(idea-shell, None, None)
